{
    "version": 2,
    "name": "arcane/svelt-template",
    "scope": "arcane",
    "alias": "wc.runomicon.com",
    "builds": [
        {
            "src": "package.json",
            "use": "@now/static-build",
            "config": { "distDir": "public" }
        }
    ]
}